training_set_size,minibatch_size,accuracy
1000,1,0.459
1000,10,0.584
1000,50,0.676
1000,100,0.686
1000,1000,0.683
10000,1,0.485
10000,10,0.676
10000,50,0.698
10000,100,0.489
10000,1000,0.702
50000,1,0.553
50000,10,0.619
50000,50,0.525
50000,100,0.709
50000,1000,0.673
100000,1,0.293
100000,10,0.503
100000,50,0.661
100000,100,0.649
100000,1000,0.677
